%!PS-Adobe-3.0 EPSF-3.0
%%Creator: cairo 1.17.4 (https://cairographics.org)
%%CreationDate: Thu Jul 29 17:51:51 2021
%%Pages: 1
%%DocumentData: Clean7Bit
%%LanguageLevel: 2
%%BoundingBox: 0 0 88 36
%%EndComments
%%BeginProlog
50 dict begin
/q { gsave } bind def
/Q { grestore } bind def
/cm { 6 array astore concat } bind def
/w { setlinewidth } bind def
/J { setlinecap } bind def
/j { setlinejoin } bind def
/M { setmiterlimit } bind def
/d { setdash } bind def
/m { moveto } bind def
/l { lineto } bind def
/c { curveto } bind def
/h { closepath } bind def
/re { exch dup neg 3 1 roll 5 3 roll moveto 0 rlineto
      0 exch rlineto 0 rlineto closepath } bind def
/S { stroke } bind def
/f { fill } bind def
/f* { eofill } bind def
/n { newpath } bind def
/W { clip } bind def
/W* { eoclip } bind def
/BT { } bind def
/ET { } bind def
/BDC { mark 3 1 roll /BDC pdfmark } bind def
/EMC { mark /EMC pdfmark } bind def
/cairo_store_point { /cairo_point_y exch def /cairo_point_x exch def } def
/Tj { show currentpoint cairo_store_point } bind def
/TJ {
  {
    dup
    type /stringtype eq
    { show } { -0.001 mul 0 cairo_font_matrix dtransform rmoveto } ifelse
  } forall
  currentpoint cairo_store_point
} bind def
/cairo_selectfont { cairo_font_matrix aload pop pop pop 0 0 6 array astore
    cairo_font exch selectfont cairo_point_x cairo_point_y moveto } bind def
/Tf { pop /cairo_font exch def /cairo_font_matrix where
      { pop cairo_selectfont } if } bind def
/Td { matrix translate cairo_font_matrix matrix concatmatrix dup
      /cairo_font_matrix exch def dup 4 get exch 5 get cairo_store_point
      /cairo_font where { pop cairo_selectfont } if } bind def
/Tm { 2 copy 8 2 roll 6 array astore /cairo_font_matrix exch def
      cairo_store_point /cairo_font where { pop cairo_selectfont } if } bind def
/g { setgray } bind def
/rg { setrgbcolor } bind def
/d1 { setcachedevice } bind def
/cairo_data_source {
  CairoDataIndex CairoData length lt
    { CairoData CairoDataIndex get /CairoDataIndex CairoDataIndex 1 add def }
    { () } ifelse
} def
/cairo_flush_ascii85_file { cairo_ascii85_file status { cairo_ascii85_file flushfile } if } def
/cairo_image { image cairo_flush_ascii85_file } def
/cairo_imagemask { imagemask cairo_flush_ascii85_file } def
%%EndProlog
%%BeginSetup
%%EndSetup
%%Page: 1 1
%%BeginPageSetup
%%PageBoundingBox: 0 0 88 36
%%EndPageSetup
q 0 0 88 36 rectclip
1 0 0 -1 0 36 cm q
0 g
25.426 34.273 m 23.773 34.273 22.5 32.926 22.5 31.199 c 22.5 29.477 23.773
 28.199 25.426 28.199 c 26.25 28.199 27.148 28.648 27.75 29.324 c 28.574
 28.273 l 27.75 27.449 26.625 26.926 25.426 26.926 c 22.949 26.926 21.074
 28.801 21.074 31.273 c 21.074 33.75 22.949 35.625 25.352 35.625 c 26.551
 35.625 27.75 35.102 28.574 34.199 c 27.75 33.227 l 27.148 33.898 26.25 
34.273 25.426 34.273 c h
25.426 34.273 m f
33.977 27 m 30.375 35.625 l 31.801 35.625 l 32.625 33.676 l 36.824 33.676
 l 37.648 35.625 l 39.148 35.625 l 35.551 27 l h
33.074 32.324 m 34.648 28.5 l 36.227 32.324 l h
33.074 32.324 m f
46.051 32.699 m 43.273 27 l 41.625 27 l 41.625 35.625 l 42.977 35.625 l
 42.977 29.176 l 45.523 34.727 l 46.5 34.727 l 49.051 29.176 l 49.051 35.625
 l 50.398 35.625 l 50.398 27 l 48.75 27 l h
46.051 32.699 m f
57.375 27 m 54.074 27 l 54.074 35.625 l 55.5 35.625 l 55.5 33 l 57.375 
33 l 59.477 33 60.676 31.875 60.676 29.926 c 60.602 28.051 59.398 27 57.375
 27 c h
57.301 31.727 m 55.426 31.727 l 55.426 28.352 l 57.301 28.352 l 58.574 
28.352 59.324 28.875 59.324 30 c 59.25 31.125 58.574 31.727 57.301 31.727
 c h
57.301 31.727 m f
69.148 32.023 m 69.148 33.523 68.324 34.352 66.977 34.352 c 65.625 34.352
 64.727 33.449 64.727 32.023 c 64.727 27 l 63.301 27 l 63.301 32.023 l 63.301
 34.273 64.648 35.625 66.898 35.625 c 69.148 35.625 70.5 34.273 70.5 32.023
 c 70.5 27 l 69.074 27 l 69.074 32.023 l h
69.148 32.023 m f
75.301 29.176 m 75.301 28.574 75.824 28.273 76.648 28.273 c 77.25 28.273
 78.148 28.5 79.051 29.102 c 79.648 27.824 l 78.898 27.301 77.852 26.926
 76.727 26.926 c 74.926 26.926 73.727 27.824 73.727 29.324 c 73.727 32.398
 78.227 31.352 78.227 33.227 c 78.227 33.898 77.625 34.273 76.648 34.273
 c 75.75 34.273 74.699 33.824 73.875 33 c 73.273 34.273 l 74.102 35.102 
75.375 35.625 76.648 35.625 c 78.449 35.625 79.801 34.648 79.801 33.148 
c 79.727 30.074 75.301 31.051 75.301 29.176 c h
75.301 29.176 m f
55.949 21.602 m 61.949 21.602 66.824 16.801 66.824 10.801 c 66.824 4.801
 61.949 0 55.949 0 c 49.949 0 45.074 4.801 45.074 10.801 c 45.074 16.801
 49.949 21.602 55.949 21.602 c h
55.949 5.102 m 59.102 5.102 61.648 7.648 61.648 10.727 c 61.648 13.875 
59.102 16.352 55.949 16.352 c 52.801 16.352 50.25 13.801 50.25 10.727 c 
50.25 7.648 52.801 5.102 55.949 5.102 c h
55.949 5.102 m f
21.148 21.602 m 26.324 21.602 l 26.324 11.102 l 26.324 7.875 28.875 5.324
 32.023 5.324 c 35.176 5.324 37.727 7.875 37.727 11.102 c 37.727 21.602 
l 42.898 21.602 l 42.898 11.102 l 42.898 5.023 38.023 0.074 32.023 0.074
 c 26.023 0.074 21.148 5.023 21.148 11.102 c h
21.148 21.602 m f
9.449 11.25 m 9.449 10.5 9.301 9.824 9.074 9.227 c 5.551 0.074 l 0 0.074
 l 6.148 16.199 l 8.102 15.449 9.449 13.5 9.449 11.25 c h
9.449 11.25 m f
79.727 21.602 m 87.977 0.074 l 82.426 0.074 l 74.176 21.602 l h
79.727 21.602 m f
75.375 11.25 m 75.375 10.5 75.227 9.824 75 9.227 c 71.477 0.074 l 65.926
 0.074 l 72.148 16.199 l 74.023 15.449 75.375 13.5 75.375 11.25 c h
75.375 11.25 m f
16.5 0.074 m 2.852 35.625 l 8.398 35.625 l 22.051 0.074 l h
16.5 0.074 m f
Q Q
showpage
%%Trailer
end
%%EOF
